EESchema Schematic File Version 4
EELAYER 26 0
EELAYER END
$Descr A4 11693 8268
encoding utf-8
Sheet 1 1
Title ""
Date ""
Rev ""
Comp ""
Comment1 ""
Comment2 ""
Comment3 ""
Comment4 ""
$EndDescr
$Comp
L ESP8266:NodeMCU1.0(ESP-12E) U?
U 1 1 5C930F1B
P 2000 2000
F 0 "U?" H 2000 3087 60  0000 C CNN
F 1 "NodeMCU1.0(ESP-12E)" H 2000 2981 60  0000 C CNN
F 2 "" H 1400 1150 60  0000 C CNN
F 3 "" H 1400 1150 60  0000 C CNN
	1    2000 2000
	1    0    0    -1  
$EndComp
$Comp
L Motor:Motor_DC M?
U 1 1 5C93108A
P 6350 2100
F 0 "M?" H 6508 2096 50  0000 L CNN
F 1 "Motor_DC" H 6508 2005 50  0000 L CNN
F 2 "" H 6350 2010 50  0001 C CNN
F 3 "~" H 6350 2010 50  0001 C CNN
	1    6350 2100
	1    0    0    -1  
$EndComp
$Comp
L Relay:TIANBO-HJR-4102-L RL1
U 1 1 5C931236
P 5000 1350
F 0 "RL1" H 5430 1350 50  0000 L CNN
F 1 "TIANBO-HJR-4102-L" H 5430 1305 50  0001 L CNN
F 2 "Relay_THT:Relay_SPDT_HJR-4102" H 6100 1300 50  0001 C CNN
F 3 "https://cdn-reichelt.de/documents/datenblatt/C300/DS_HJR4102E.pdf" H 5450 1500 50  0001 C CNN
	1    5000 1350
	1    0    0    -1  
$EndComp
$Comp
L Relay:TIANBO-HJR-4102-L RL2
U 1 1 5C9312A3
P 5000 2950
F 0 "RL2" H 5430 2950 50  0000 L CNN
F 1 "TIANBO-HJR-4102-L" H 4571 2995 50  0001 R CNN
F 2 "Relay_THT:Relay_SPDT_HJR-4102" H 6100 2900 50  0001 C CNN
F 3 "https://cdn-reichelt.de/documents/datenblatt/C300/DS_HJR4102E.pdf" H 5450 3100 50  0001 C CNN
	1    5000 2950
	1    0    0    -1  
$EndComp
$Comp
L power:+12V #PWR0101
U 1 1 5C93183C
P 5600 1050
F 0 "#PWR0101" H 5600 900 50  0001 C CNN
F 1 "+12V" H 5615 1223 50  0000 C CNN
F 2 "" H 5600 1050 50  0001 C CNN
F 3 "" H 5600 1050 50  0001 C CNN
	1    5600 1050
	1    0    0    -1  
$EndComp
$Comp
L power:+12V #PWR0102
U 1 1 5C93187E
P 5600 2650
F 0 "#PWR0102" H 5600 2500 50  0001 C CNN
F 1 "+12V" H 5615 2823 50  0000 C CNN
F 2 "" H 5600 2650 50  0001 C CNN
F 3 "" H 5600 2650 50  0001 C CNN
	1    5600 2650
	1    0    0    -1  
$EndComp
$Comp
L power:Earth #PWR0103
U 1 1 5C9318DF
P 5300 800
F 0 "#PWR0103" H 5300 550 50  0001 C CNN
F 1 "Earth" H 5300 650 50  0001 C CNN
F 2 "" H 5300 800 50  0001 C CNN
F 3 "~" H 5300 800 50  0001 C CNN
	1    5300 800 
	1    0    0    -1  
$EndComp
$Comp
L power:Earth #PWR0104
U 1 1 5C93190D
P 5300 2400
F 0 "#PWR0104" H 5300 2150 50  0001 C CNN
F 1 "Earth" H 5300 2250 50  0001 C CNN
F 2 "" H 5300 2400 50  0001 C CNN
F 3 "~" H 5300 2400 50  0001 C CNN
	1    5300 2400
	1    0    0    -1  
$EndComp
Wire Wire Line
	5100 1050 5100 800 
Wire Wire Line
	5100 800  5300 800 
$Comp
L Transistor_BJT:2N3904 Q?
U 1 1 5C932308
P 4700 1850
F 0 "Q?" H 4891 1896 50  0000 L CNN
F 1 "2N3904" H 4891 1805 50  0000 L CNN
F 2 "Package_TO_SOT_THT:TO-92_Inline" H 4900 1775 50  0001 L CIN
F 3 "https://www.fairchildsemi.com/datasheets/2N/2N3904.pdf" H 4700 1850 50  0001 L CNN
	1    4700 1850
	1    0    0    -1  
$EndComp
$Comp
L Transistor_BJT:2N3904 Q?
U 1 1 5C932383
P 4700 3450
F 0 "Q?" H 4891 3496 50  0000 L CNN
F 1 "2N3904" H 4891 3405 50  0000 L CNN
F 2 "Package_TO_SOT_THT:TO-92_Inline" H 4900 3375 50  0001 L CIN
F 3 "https://www.fairchildsemi.com/datasheets/2N/2N3904.pdf" H 4700 3450 50  0001 L CNN
	1    4700 3450
	1    0    0    -1  
$EndComp
$Comp
L power:+5V #PWR0105
U 1 1 5C9324B6
P 4800 1050
F 0 "#PWR0105" H 4800 900 50  0001 C CNN
F 1 "+5V" H 4815 1223 50  0000 C CNN
F 2 "" H 4800 1050 50  0001 C CNN
F 3 "" H 4800 1050 50  0001 C CNN
	1    4800 1050
	1    0    0    -1  
$EndComp
$Comp
L power:+5V #PWR0106
U 1 1 5C932588
P 4800 2650
F 0 "#PWR0106" H 4800 2500 50  0001 C CNN
F 1 "+5V" H 4815 2823 50  0000 C CNN
F 2 "" H 4800 2650 50  0001 C CNN
F 3 "" H 4800 2650 50  0001 C CNN
	1    4800 2650
	1    0    0    -1  
$EndComp
$Comp
L power:Earth #PWR0107
U 1 1 5C933003
P 4800 2050
F 0 "#PWR0107" H 4800 1800 50  0001 C CNN
F 1 "Earth" H 4800 1900 50  0001 C CNN
F 2 "" H 4800 2050 50  0001 C CNN
F 3 "~" H 4800 2050 50  0001 C CNN
	1    4800 2050
	1    0    0    -1  
$EndComp
Wire Wire Line
	4500 1850 4400 1850
Wire Wire Line
	4400 1850 4400 1300
Wire Wire Line
	4400 1300 2800 1300
Wire Wire Line
	5100 2650 5100 2400
Wire Wire Line
	5100 2400 5300 2400
Wire Wire Line
	5200 1650 6350 1650
Wire Wire Line
	6350 1650 6350 1900
Wire Wire Line
	5300 1050 5600 1050
Wire Wire Line
	5300 2650 5600 2650
Wire Wire Line
	5200 3250 6350 3250
Wire Wire Line
	6350 3250 6350 2400
$Comp
L power:Earth #PWR0108
U 1 1 5C934096
P 4800 3650
F 0 "#PWR0108" H 4800 3400 50  0001 C CNN
F 1 "Earth" H 4800 3500 50  0001 C CNN
F 2 "" H 4800 3650 50  0001 C CNN
F 3 "~" H 4800 3650 50  0001 C CNN
	1    4800 3650
	1    0    0    -1  
$EndComp
Wire Wire Line
	4500 3450 4300 3450
Wire Wire Line
	4300 3450 4300 1400
Wire Wire Line
	4300 1400 2800 1400
$Comp
L power:Earth #PWR?
U 1 1 5C9345EE
P 850 2400
F 0 "#PWR?" H 850 2150 50  0001 C CNN
F 1 "Earth" H 850 2250 50  0001 C CNN
F 2 "" H 850 2400 50  0001 C CNN
F 3 "~" H 850 2400 50  0001 C CNN
	1    850  2400
	1    0    0    -1  
$EndComp
$Comp
L power:+5V #PWR?
U 1 1 5C93462F
P 850 2900
F 0 "#PWR?" H 850 2750 50  0001 C CNN
F 1 "+5V" H 865 3073 50  0000 C CNN
F 2 "" H 850 2900 50  0001 C CNN
F 3 "" H 850 2900 50  0001 C CNN
	1    850  2900
	1    0    0    -1  
$EndComp
Wire Wire Line
	1200 2600 1000 2600
Wire Wire Line
	1000 2600 1000 2400
Wire Wire Line
	1000 2400 850  2400
Wire Wire Line
	1200 2700 1000 2700
Wire Wire Line
	1000 2700 1000 2900
Wire Wire Line
	1000 2900 850  2900
$EndSCHEMATC
